###############################################################################
#
# IAR ANSI C/C++ Compiler V7.80.3.12102/W32 for ARM       03/Jun/2019  03:45:25
# Copyright 1999-2016 IAR Systems AB.
#
#    Cpu mode     =  thumb
#    Endian       =  little
#    Source file  =  D:\Yandex\STM32\main.c
#    Command line =  
#        D:\Yandex\STM32\main.c -lcN D:\Yandex\STM32\Debug\List -o
#        D:\Yandex\STM32\Debug\Obj --no_cse --no_unroll --no_inline
#        --no_code_motion --no_tbaa --no_clustering --no_scheduling --debug
#        --endian=little --cpu=Cortex-M4 --strict --fpu=VFPv4_sp --dlib_config
#        "C:\Program Files (x86)\IAR Systems\Embedded Workbench
#        7.5\arm\INC\c\DLib_Config_Normal.h" -I
#        D:\Yandex\STM32\..\src_block_alloc\ -Ol
#    Locale       =  Russian_Russia.1251
#    List file    =  D:\Yandex\STM32\Debug\List\main.lst
#    Object file  =  D:\Yandex\STM32\Debug\Obj\main.o
#
###############################################################################

D:\Yandex\STM32\main.c
      1          #include "lib.h"
      2          
      3          int main()
      4          {
      5              lock_block();
      6              
      7            return 0;
      8          }

   Maximum stack usage in bytes:

   .cstack Function
   ------- --------
       8   main
         8   -> lock_block


   Section sizes:

   Bytes  Function/Label
   -----  --------------
      10  main

 
 10 bytes in section .text
 
 10 bytes of CODE memory

Errors: none
Warnings: none
